\relax 
\@writefile{toc}{\contentsline {section}{\numberline {1}Development Tools}{1}}
\@writefile{toc}{\contentsline {section}{\numberline {2}Formulas}{1}}
\newlabel{variables}{{2}{1}}
\newlabel{Y}{{2}{1}}
\newlabel{Y}{{2}{2}}
\newlabel{beta_hat}{{2}{2}}
\newlabel{D_r}{{2}{2}}
\newlabel{var_c_beta_hat}{{2}{2}}
\newlabel{Z}{{2}{2}}
\newlabel{SPRT}{{2}{2}}
\newlabel{theta_1}{{2}{2}}
\newlabel{boundary}{{2}{3}}
