\relax 
\@writefile{toc}{\contentsline {section}{\numberline {1}Formulas}{1}}
\newlabel{rho_hat}{{1}{1}}
\newlabel{W_matrix}{{1}{1}}
\newlabel{beta_hat}{{1}{1}}
\newlabel{sigma_hat}{{1}{1}}
\newlabel{var_c_beta_hat}{{1}{1}}
\newlabel{Z}{{1}{2}}
\newlabel{Z}{{1}{2}}
\newlabel{theta_1}{{1}{2}}
\newlabel{boundary}{{1}{2}}
